{
    "basename": "ast-expr1-f082581",
    "cmd": "lfortran --show-ast {infile} -o {outfile}",
    "infile": "tests/expr1.f90",
    "infile_hash": "3c49cb3157ec3feaf0f97156e5c11dca0ffd6481c97bb1a5dffaa14f",
    "outfile": null,
    "outfile_hash": null,
    "stdout": "ast-expr1-f082581.stdout",
    "stdout_hash": "4dd7fa679497b2d76731446b1806384ec2630c942a91a3d92364f2a9",
    "stderr": null,
    "stderr_hash": null,
    "returncode": 0
}